%YAML 1.1
%TAG !u! tag:unity3d.com,2011:
--- !u!1 &1327633452370106589
GameObject:
  m_ObjectHideFlags: 0
  m_CorrespondingSourceObject: {fileID: 0}
  m_PrefabInstance: {fileID: 0}
  m_PrefabAsset: {fileID: 0}
  serializedVersion: 6
  m_Component:
  - component: {fileID: 1528319327465395101}
  m_Layer: 0
  m_Name: Both Ice sides
  m_TagString: Untagged
  m_Icon: {fileID: 0}
  m_NavMeshLayer: 0
  m_StaticEditorFlags: 0
  m_IsActive: 1
--- !u!4 &1528319327465395101
Transform:
  m_ObjectHideFlags: 0
  m_CorrespondingSourceObject: {fileID: 0}
  m_PrefabInstance: {fileID: 0}
  m_PrefabAsset: {fileID: 0}
  m_GameObject: {fileID: 1327633452370106589}
  m_LocalRotation: {x: -0, y: -0.028719641, z: -0, w: -0.99958754}
  m_LocalPosition: {x: 1667.4001, y: 174.7, z: 486.3}
  m_LocalScale: {x: 12.622164, y: 0.39025345, z: 12.027294}
  m_Children:
  - {fileID: 9011151733403728249}
  - {fileID: 8108812203008291903}
  m_Father: {fileID: 0}
  m_RootOrder: 0
  m_LocalEulerAnglesHint: {x: 0, y: 0, z: 0}
--- !u!1001 &3971444091282783919
PrefabInstance:
  m_ObjectHideFlags: 0
  serializedVersion: 2
  m_Modification:
    m_TransformParent: {fileID: 1528319327465395101}
    m_Modifications:
    - target: {fileID: 38604905200062774, guid: 62f38fd9273ac874cac6c1801983bad8, type: 3}
      propertyPath: m_RootOrder
      value: 98
      objectReference: {fileID: 0}
    - target: {fileID: 59484666043704180, guid: 62f38fd9273ac874cac6c1801983bad8, type: 3}
      propertyPath: m_Materials.Array.data[0]
      value: 
      objectReference: {fileID: 2100000, guid: 33408fa7657e3d3449738933fa3d8b2b, type: 2}
    - target: {fileID: 287928808648551113, guid: 62f38fd9273ac874cac6c1801983bad8, type: 3}
      propertyPath: m_RootOrder
      value: 92
      objectReference: {fileID: 0}
    - target: {fileID: 962057280092701619, guid: 62f38fd9273ac874cac6c1801983bad8, type: 3}
      propertyPath: m_RootOrder
      value: 95
      objectReference: {fileID: 0}
    - target: {fileID: 979187184221340581, guid: 62f38fd9273ac874cac6c1801983bad8, type: 3}
      propertyPath: m_LocalPosition.x
      value: -24.6
      objectReference: {fileID: 0}
    - target: {fileID: 979187184221340581, guid: 62f38fd9273ac874cac6c1801983bad8, type: 3}
      propertyPath: m_LocalPosition.z
      value: -11.89
      objectReference: {fileID: 0}
    - target: {fileID: 1703994431606168214, guid: 62f38fd9273ac874cac6c1801983bad8, type: 3}
      propertyPath: m_RootOrder
      value: 97
      objectReference: {fileID: 0}
    - target: {fileID: 2150980192015875139, guid: 62f38fd9273ac874cac6c1801983bad8, type: 3}
      propertyPath: m_RootOrder
      value: 92
      objectReference: {fileID: 0}
    - target: {fileID: 2585451909014994838, guid: 62f38fd9273ac874cac6c1801983bad8, type: 3}
      propertyPath: m_RootOrder
      value: 91
      objectReference: {fileID: 0}
    - target: {fileID: 2808393967416596073, guid: 62f38fd9273ac874cac6c1801983bad8, type: 3}
      propertyPath: m_RootOrder
      value: 90
      objectReference: {fileID: 0}
    - target: {fileID: 2896297988591149963, guid: 62f38fd9273ac874cac6c1801983bad8, type: 3}
      propertyPath: m_RootOrder
      value: 89
      objectReference: {fileID: 0}
    - target: {fileID: 3831977320246644877, guid: 62f38fd9273ac874cac6c1801983bad8, type: 3}
      propertyPath: m_RootOrder
      value: 85
      objectReference: {fileID: 0}
    - target: {fileID: 4037950950193467647, guid: 62f38fd9273ac874cac6c1801983bad8, type: 3}
      propertyPath: m_RootOrder
      value: 94
      objectReference: {fileID: 0}
    - target: {fileID: 4240858273459716748, guid: 62f38fd9273ac874cac6c1801983bad8, type: 3}
      propertyPath: m_RootOrder
      value: 86
      objectReference: {fileID: 0}
    - target: {fileID: 4767743868961727170, guid: 62f38fd9273ac874cac6c1801983bad8, type: 3}
      propertyPath: m_Name
      value: Top ice/snow (1)
      objectReference: {fileID: 0}
    - target: {fileID: 5158080489920301712, guid: 62f38fd9273ac874cac6c1801983bad8, type: 3}
      propertyPath: m_RootOrder
      value: 1
      objectReference: {fileID: 0}
    - target: {fileID: 5158080489920301712, guid: 62f38fd9273ac874cac6c1801983bad8, type: 3}
      propertyPath: m_LocalScale.x
      value: 1
      objectReference: {fileID: 0}
    - target: {fileID: 5158080489920301712, guid: 62f38fd9273ac874cac6c1801983bad8, type: 3}
      propertyPath: m_LocalScale.y
      value: -1.590575
      objectReference: {fileID: 0}
    - target: {fileID: 5158080489920301712, guid: 62f38fd9273ac874cac6c1801983bad8, type: 3}
      propertyPath: m_LocalScale.z
      value: 1
      objectReference: {fileID: 0}
    - target: {fileID: 5158080489920301712, guid: 62f38fd9273ac874cac6c1801983bad8, type: 3}
      propertyPath: m_LocalPosition.x
      value: 0
      objectReference: {fileID: 0}
    - target: {fileID: 5158080489920301712, guid: 62f38fd9273ac874cac6c1801983bad8, type: 3}
      propertyPath: m_LocalPosition.y
      value: -99.42258
      objectReference: {fileID: 0}
    - target: {fileID: 5158080489920301712, guid: 62f38fd9273ac874cac6c1801983bad8, type: 3}
      propertyPath: m_LocalPosition.z
      value: 0
      objectReference: {fileID: 0}
    - target: {fileID: 5158080489920301712, guid: 62f38fd9273ac874cac6c1801983bad8, type: 3}
      propertyPath: m_LocalRotation.w
      value: 1
      objectReference: {fileID: 0}
    - target: {fileID: 5158080489920301712, guid: 62f38fd9273ac874cac6c1801983bad8, type: 3}
      propertyPath: m_LocalRotation.x
      value: -0
      objectReference: {fileID: 0}
    - target: {fileID: 5158080489920301712, guid: 62f38fd9273ac874cac6c1801983bad8, type: 3}
      propertyPath: m_LocalRotation.y
      value: -0
      objectReference: {fileID: 0}
    - target: {fileID: 5158080489920301712, guid: 62f38fd9273ac874cac6c1801983bad8, type: 3}
      propertyPath: m_LocalRotation.z
      value: -0
      objectReference: {fileID: 0}
    - target: {fileID: 5158080489920301712, guid: 62f38fd9273ac874cac6c1801983bad8, type: 3}
      propertyPath: m_LocalEulerAnglesHint.x
      value: 0
      objectReference: {fileID: 0}
    - target: {fileID: 5158080489920301712, guid: 62f38fd9273ac874cac6c1801983bad8, type: 3}
      propertyPath: m_LocalEulerAnglesHint.y
      value: 0
      objectReference: {fileID: 0}
    - target: {fileID: 5158080489920301712, guid: 62f38fd9273ac874cac6c1801983bad8, type: 3}
      propertyPath: m_LocalEulerAnglesHint.z
      value: 0
      objectReference: {fileID: 0}
    - target: {fileID: 5521515377562128091, guid: 62f38fd9273ac874cac6c1801983bad8, type: 3}
      propertyPath: m_RootOrder
      value: 96
      objectReference: {fileID: 0}
    - target: {fileID: 5678193516553430721, guid: 62f38fd9273ac874cac6c1801983bad8, type: 3}
      propertyPath: m_RootOrder
      value: 88
      objectReference: {fileID: 0}
    - target: {fileID: 5838374805111944354, guid: 62f38fd9273ac874cac6c1801983bad8, type: 3}
      propertyPath: m_Materials.Array.data[0]
      value: 
      objectReference: {fileID: 2100000, guid: 33408fa7657e3d3449738933fa3d8b2b, type: 2}
    - target: {fileID: 5861654696265950456, guid: 62f38fd9273ac874cac6c1801983bad8, type: 3}
      propertyPath: m_RootOrder
      value: 99
      objectReference: {fileID: 0}
    - target: {fileID: 7652872294629512842, guid: 62f38fd9273ac874cac6c1801983bad8, type: 3}
      propertyPath: m_RootOrder
      value: 93
      objectReference: {fileID: 0}
    - target: {fileID: 7671783953730576837, guid: 62f38fd9273ac874cac6c1801983bad8, type: 3}
      propertyPath: m_RootOrder
      value: 93
      objectReference: {fileID: 0}
    - target: {fileID: 8563860950575762555, guid: 62f38fd9273ac874cac6c1801983bad8, type: 3}
      propertyPath: m_RootOrder
      value: 87
      objectReference: {fileID: 0}
    m_RemovedComponents: []
  m_SourcePrefab: {fileID: 100100000, guid: 62f38fd9273ac874cac6c1801983bad8, type: 3}
--- !u!4 &8108812203008291903 stripped
Transform:
  m_CorrespondingSourceObject: {fileID: 5158080489920301712, guid: 62f38fd9273ac874cac6c1801983bad8, type: 3}
  m_PrefabInstance: {fileID: 3971444091282783919}
  m_PrefabAsset: {fileID: 0}
--- !u!1001 &3971444091743052456
PrefabInstance:
  m_ObjectHideFlags: 0
  serializedVersion: 2
  m_Modification:
    m_TransformParent: {fileID: 8108812203008291903}
    m_Modifications:
    - target: {fileID: 1895517826897100, guid: f9c5c5c870535fb48b0849bf33a79ab4, type: 3}
      propertyPath: m_Name
      value: SM_Generic_Water_Plane_02 (9)
      objectReference: {fileID: 0}
    - target: {fileID: 4651966528923606, guid: f9c5c5c870535fb48b0849bf33a79ab4, type: 3}
      propertyPath: m_RootOrder
      value: 84
      objectReference: {fileID: 0}
    - target: {fileID: 4651966528923606, guid: f9c5c5c870535fb48b0849bf33a79ab4, type: 3}
      propertyPath: m_LocalScale.x
      value: 0.8752867
      objectReference: {fileID: 0}
    - target: {fileID: 4651966528923606, guid: f9c5c5c870535fb48b0849bf33a79ab4, type: 3}
      propertyPath: m_LocalScale.y
      value: 1.0306379
      objectReference: {fileID: 0}
    - target: {fileID: 4651966528923606, guid: f9c5c5c870535fb48b0849bf33a79ab4, type: 3}
      propertyPath: m_LocalScale.z
      value: 0.7861837
      objectReference: {fileID: 0}
    - target: {fileID: 4651966528923606, guid: f9c5c5c870535fb48b0849bf33a79ab4, type: 3}
      propertyPath: m_LocalPosition.x
      value: 13.47
      objectReference: {fileID: 0}
    - target: {fileID: 4651966528923606, guid: f9c5c5c870535fb48b0849bf33a79ab4, type: 3}
      propertyPath: m_LocalPosition.y
      value: 1.537478
      objectReference: {fileID: 0}
    - target: {fileID: 4651966528923606, guid: f9c5c5c870535fb48b0849bf33a79ab4, type: 3}
      propertyPath: m_LocalPosition.z
      value: -30.14
      objectReference: {fileID: 0}
    - target: {fileID: 4651966528923606, guid: f9c5c5c870535fb48b0849bf33a79ab4, type: 3}
      propertyPath: m_LocalRotation.w
      value: -0.99958754
      objectReference: {fileID: 0}
    - target: {fileID: 4651966528923606, guid: f9c5c5c870535fb48b0849bf33a79ab4, type: 3}
      propertyPath: m_LocalRotation.x
      value: -0
      objectReference: {fileID: 0}
    - target: {fileID: 4651966528923606, guid: f9c5c5c870535fb48b0849bf33a79ab4, type: 3}
      propertyPath: m_LocalRotation.y
      value: 0.028719641
      objectReference: {fileID: 0}
    - target: {fileID: 4651966528923606, guid: f9c5c5c870535fb48b0849bf33a79ab4, type: 3}
      propertyPath: m_LocalRotation.z
      value: -0
      objectReference: {fileID: 0}
    - target: {fileID: 4651966528923606, guid: f9c5c5c870535fb48b0849bf33a79ab4, type: 3}
      propertyPath: m_LocalEulerAnglesHint.x
      value: 0
      objectReference: {fileID: 0}
    - target: {fileID: 4651966528923606, guid: f9c5c5c870535fb48b0849bf33a79ab4, type: 3}
      propertyPath: m_LocalEulerAnglesHint.y
      value: 0
      objectReference: {fileID: 0}
    - target: {fileID: 4651966528923606, guid: f9c5c5c870535fb48b0849bf33a79ab4, type: 3}
      propertyPath: m_LocalEulerAnglesHint.z
      value: 0
      objectReference: {fileID: 0}
    m_RemovedComponents: []
  m_SourcePrefab: {fileID: 100100000, guid: f9c5c5c870535fb48b0849bf33a79ab4, type: 3}
--- !u!1001 &4223008805551485929
PrefabInstance:
  m_ObjectHideFlags: 0
  serializedVersion: 2
  m_Modification:
    m_TransformParent: {fileID: 1528319327465395101}
    m_Modifications:
    - target: {fileID: 4767743868961727170, guid: 62f38fd9273ac874cac6c1801983bad8, type: 3}
      propertyPath: m_Name
      value: Top ice/snow
      objectReference: {fileID: 0}
    - target: {fileID: 5158080489920301712, guid: 62f38fd9273ac874cac6c1801983bad8, type: 3}
      propertyPath: m_RootOrder
      value: 0
      objectReference: {fileID: 0}
    - target: {fileID: 5158080489920301712, guid: 62f38fd9273ac874cac6c1801983bad8, type: 3}
      propertyPath: m_LocalScale.x
      value: 1
      objectReference: {fileID: 0}
    - target: {fileID: 5158080489920301712, guid: 62f38fd9273ac874cac6c1801983bad8, type: 3}
      propertyPath: m_LocalScale.y
      value: 1
      objectReference: {fileID: 0}
    - target: {fileID: 5158080489920301712, guid: 62f38fd9273ac874cac6c1801983bad8, type: 3}
      propertyPath: m_LocalScale.z
      value: 1
      objectReference: {fileID: 0}
    - target: {fileID: 5158080489920301712, guid: 62f38fd9273ac874cac6c1801983bad8, type: 3}
      propertyPath: m_LocalPosition.x
      value: 0
      objectReference: {fileID: 0}
    - target: {fileID: 5158080489920301712, guid: 62f38fd9273ac874cac6c1801983bad8, type: 3}
      propertyPath: m_LocalPosition.y
      value: 0
      objectReference: {fileID: 0}
    - target: {fileID: 5158080489920301712, guid: 62f38fd9273ac874cac6c1801983bad8, type: 3}
      propertyPath: m_LocalPosition.z
      value: 0
      objectReference: {fileID: 0}
    - target: {fileID: 5158080489920301712, guid: 62f38fd9273ac874cac6c1801983bad8, type: 3}
      propertyPath: m_LocalRotation.w
      value: 1
      objectReference: {fileID: 0}
    - target: {fileID: 5158080489920301712, guid: 62f38fd9273ac874cac6c1801983bad8, type: 3}
      propertyPath: m_LocalRotation.x
      value: -0
      objectReference: {fileID: 0}
    - target: {fileID: 5158080489920301712, guid: 62f38fd9273ac874cac6c1801983bad8, type: 3}
      propertyPath: m_LocalRotation.y
      value: -0
      objectReference: {fileID: 0}
    - target: {fileID: 5158080489920301712, guid: 62f38fd9273ac874cac6c1801983bad8, type: 3}
      propertyPath: m_LocalRotation.z
      value: -0
      objectReference: {fileID: 0}
    - target: {fileID: 5158080489920301712, guid: 62f38fd9273ac874cac6c1801983bad8, type: 3}
      propertyPath: m_LocalEulerAnglesHint.x
      value: 0
      objectReference: {fileID: 0}
    - target: {fileID: 5158080489920301712, guid: 62f38fd9273ac874cac6c1801983bad8, type: 3}
      propertyPath: m_LocalEulerAnglesHint.y
      value: 0
      objectReference: {fileID: 0}
    - target: {fileID: 5158080489920301712, guid: 62f38fd9273ac874cac6c1801983bad8, type: 3}
      propertyPath: m_LocalEulerAnglesHint.z
      value: 0
      objectReference: {fileID: 0}
    m_RemovedComponents: []
  m_SourcePrefab: {fileID: 100100000, guid: 62f38fd9273ac874cac6c1801983bad8, type: 3}
--- !u!4 &9011151733403728249 stripped
Transform:
  m_CorrespondingSourceObject: {fileID: 5158080489920301712, guid: 62f38fd9273ac874cac6c1801983bad8, type: 3}
  m_PrefabInstance: {fileID: 4223008805551485929}
  m_PrefabAsset: {fileID: 0}
