%YAML 1.1
%TAG !u! tag:unity3d.com,2011:
--- !u!1001 &4578702037807435702
PrefabInstance:
  m_ObjectHideFlags: 0
  serializedVersion: 2
  m_Modification:
    m_TransformParent: {fileID: 0}
    m_Modifications:
    - target: {fileID: 1622761423952994, guid: 1c8c6bed3438b9141b6c6e2eb548b815, type: 3}
      propertyPath: m_Name
      value: SM_Env_Cliff_Straight_02
      objectReference: {fileID: 0}
    - target: {fileID: 4099166277382448, guid: 1c8c6bed3438b9141b6c6e2eb548b815, type: 3}
      propertyPath: m_RootOrder
      value: 0
      objectReference: {fileID: 0}
    - target: {fileID: 4099166277382448, guid: 1c8c6bed3438b9141b6c6e2eb548b815, type: 3}
      propertyPath: m_LocalScale.y
      value: 2.5706
      objectReference: {fileID: 0}
    - target: {fileID: 4099166277382448, guid: 1c8c6bed3438b9141b6c6e2eb548b815, type: 3}
      propertyPath: m_LocalPosition.x
      value: 985.27
      objectReference: {fileID: 0}
    - target: {fileID: 4099166277382448, guid: 1c8c6bed3438b9141b6c6e2eb548b815, type: 3}
      propertyPath: m_LocalPosition.y
      value: 41.8
      objectReference: {fileID: 0}
    - target: {fileID: 4099166277382448, guid: 1c8c6bed3438b9141b6c6e2eb548b815, type: 3}
      propertyPath: m_LocalPosition.z
      value: -802.4
      objectReference: {fileID: 0}
    - target: {fileID: 4099166277382448, guid: 1c8c6bed3438b9141b6c6e2eb548b815, type: 3}
      propertyPath: m_LocalRotation.w
      value: 0.44589472
      objectReference: {fileID: 0}
    - target: {fileID: 4099166277382448, guid: 1c8c6bed3438b9141b6c6e2eb548b815, type: 3}
      propertyPath: m_LocalRotation.x
      value: -0
      objectReference: {fileID: 0}
    - target: {fileID: 4099166277382448, guid: 1c8c6bed3438b9141b6c6e2eb548b815, type: 3}
      propertyPath: m_LocalRotation.y
      value: 0.89508545
      objectReference: {fileID: 0}
    - target: {fileID: 4099166277382448, guid: 1c8c6bed3438b9141b6c6e2eb548b815, type: 3}
      propertyPath: m_LocalRotation.z
      value: -0
      objectReference: {fileID: 0}
    - target: {fileID: 4099166277382448, guid: 1c8c6bed3438b9141b6c6e2eb548b815, type: 3}
      propertyPath: m_LocalEulerAnglesHint.x
      value: 0
      objectReference: {fileID: 0}
    - target: {fileID: 4099166277382448, guid: 1c8c6bed3438b9141b6c6e2eb548b815, type: 3}
      propertyPath: m_LocalEulerAnglesHint.y
      value: 127.039
      objectReference: {fileID: 0}
    - target: {fileID: 4099166277382448, guid: 1c8c6bed3438b9141b6c6e2eb548b815, type: 3}
      propertyPath: m_LocalEulerAnglesHint.z
      value: 0
      objectReference: {fileID: 0}
    - target: {fileID: 23952881612548942, guid: 1c8c6bed3438b9141b6c6e2eb548b815, type: 3}
      propertyPath: m_Materials.Array.data[0]
      value: 
      objectReference: {fileID: 2100000, guid: 66a8a6e30880caa48908020cf5388217, type: 2}
    m_RemovedComponents: []
  m_SourcePrefab: {fileID: 100100000, guid: 1c8c6bed3438b9141b6c6e2eb548b815, type: 3}
