%YAML 1.1
%TAG !u! tag:unity3d.com,2011:
--- !u!54 &7000434578453697810
Rigidbody:
  m_ObjectHideFlags: 0
  m_CorrespondingSourceObject: {fileID: 0}
  m_PrefabInstance: {fileID: 0}
  m_PrefabAsset: {fileID: 0}
  m_GameObject: {fileID: 2232641919957077627}
  serializedVersion: 2
  m_Mass: 1
  m_Drag: 0
  m_AngularDrag: 0.05
  m_UseGravity: 1
  m_IsKinematic: 0
  m_Interpolate: 0
  m_Constraints: 0
  m_CollisionDetection: 0
--- !u!114 &1674978972
MonoBehaviour:
  m_ObjectHideFlags: 0
  m_CorrespondingSourceObject: {fileID: 0}
  m_PrefabInstance: {fileID: 0}
  m_PrefabAsset: {fileID: 0}
  m_GameObject: {fileID: 2232641919957077627}
  m_Enabled: 1
  m_EditorHideFlags: 0
  m_Script: {fileID: 11500000, guid: 111da394796abe74fac0c084e9acb9ff, type: 3}
  m_Name: 
  m_EditorClassIdentifier: 
  glow: {fileID: 2100000, guid: 071589b03a8d41143834bb9846b6e3eb, type: 2}
  noGlow: {fileID: 2100000, guid: 28646867ddcf90a4989276acd313ea43, type: 2}
--- !u!114 &1674978973
MonoBehaviour:
  m_ObjectHideFlags: 0
  m_CorrespondingSourceObject: {fileID: 0}
  m_PrefabInstance: {fileID: 0}
  m_PrefabAsset: {fileID: 0}
  m_GameObject: {fileID: 2232641919957077627}
  m_Enabled: 1
  m_EditorHideFlags: 0
  m_Script: {fileID: 11500000, guid: dbcb8383dae670d4b847d42c9de43da7, type: 3}
  m_Name: 
  m_EditorClassIdentifier: 
  collectible: {fileID: 0}
  reward: 5
--- !u!114 &3481343879766909039
MonoBehaviour:
  m_ObjectHideFlags: 0
  m_CorrespondingSourceObject: {fileID: 0}
  m_PrefabInstance: {fileID: 0}
  m_PrefabAsset: {fileID: 0}
  m_GameObject: {fileID: 2232641919957077627}
  m_Enabled: 1
  m_EditorHideFlags: 0
  m_Script: {fileID: 11500000, guid: e417c6060c2677042b2045a07aa86faf, type: 3}
  m_Name: 
  m_EditorClassIdentifier: 
--- !u!1001 &2233237304132757547
PrefabInstance:
  m_ObjectHideFlags: 0
  serializedVersion: 2
  m_Modification:
    m_TransformParent: {fileID: 0}
    m_Modifications:
    - target: {fileID: 1656421620639312, guid: eef911e61ad1ee441bad98261f5302a3, type: 3}
      propertyPath: m_Name
      value: Metal Hand-in Variant
      objectReference: {fileID: 0}
    - target: {fileID: 1656421620639312, guid: eef911e61ad1ee441bad98261f5302a3, type: 3}
      propertyPath: m_TagString
      value: Metal
      objectReference: {fileID: 0}
    - target: {fileID: 4104285307108380, guid: eef911e61ad1ee441bad98261f5302a3, type: 3}
      propertyPath: m_RootOrder
      value: 0
      objectReference: {fileID: 0}
    - target: {fileID: 4104285307108380, guid: eef911e61ad1ee441bad98261f5302a3, type: 3}
      propertyPath: m_LocalScale.x
      value: 0.42646
      objectReference: {fileID: 0}
    - target: {fileID: 4104285307108380, guid: eef911e61ad1ee441bad98261f5302a3, type: 3}
      propertyPath: m_LocalScale.y
      value: 0.42646
      objectReference: {fileID: 0}
    - target: {fileID: 4104285307108380, guid: eef911e61ad1ee441bad98261f5302a3, type: 3}
      propertyPath: m_LocalScale.z
      value: 0.42646
      objectReference: {fileID: 0}
    - target: {fileID: 4104285307108380, guid: eef911e61ad1ee441bad98261f5302a3, type: 3}
      propertyPath: m_LocalPosition.x
      value: -162.03465
      objectReference: {fileID: 0}
    - target: {fileID: 4104285307108380, guid: eef911e61ad1ee441bad98261f5302a3, type: 3}
      propertyPath: m_LocalPosition.y
      value: 4.48
      objectReference: {fileID: 0}
    - target: {fileID: 4104285307108380, guid: eef911e61ad1ee441bad98261f5302a3, type: 3}
      propertyPath: m_LocalPosition.z
      value: 13.0712805
      objectReference: {fileID: 0}
    - target: {fileID: 4104285307108380, guid: eef911e61ad1ee441bad98261f5302a3, type: 3}
      propertyPath: m_LocalRotation.w
      value: 0.8660257
      objectReference: {fileID: 0}
    - target: {fileID: 4104285307108380, guid: eef911e61ad1ee441bad98261f5302a3, type: 3}
      propertyPath: m_LocalRotation.x
      value: -0
      objectReference: {fileID: 0}
    - target: {fileID: 4104285307108380, guid: eef911e61ad1ee441bad98261f5302a3, type: 3}
      propertyPath: m_LocalRotation.y
      value: -0.4999996
      objectReference: {fileID: 0}
    - target: {fileID: 4104285307108380, guid: eef911e61ad1ee441bad98261f5302a3, type: 3}
      propertyPath: m_LocalRotation.z
      value: -0
      objectReference: {fileID: 0}
    - target: {fileID: 4104285307108380, guid: eef911e61ad1ee441bad98261f5302a3, type: 3}
      propertyPath: m_LocalEulerAnglesHint.x
      value: 0
      objectReference: {fileID: 0}
    - target: {fileID: 4104285307108380, guid: eef911e61ad1ee441bad98261f5302a3, type: 3}
      propertyPath: m_LocalEulerAnglesHint.y
      value: -60
      objectReference: {fileID: 0}
    - target: {fileID: 4104285307108380, guid: eef911e61ad1ee441bad98261f5302a3, type: 3}
      propertyPath: m_LocalEulerAnglesHint.z
      value: 0
      objectReference: {fileID: 0}
    m_RemovedComponents: []
  m_SourcePrefab: {fileID: 100100000, guid: eef911e61ad1ee441bad98261f5302a3, type: 3}
--- !u!1 &2232641919957077627 stripped
GameObject:
  m_CorrespondingSourceObject: {fileID: 1656421620639312, guid: eef911e61ad1ee441bad98261f5302a3, type: 3}
  m_PrefabInstance: {fileID: 2233237304132757547}
  m_PrefabAsset: {fileID: 0}
