%YAML 1.1
%TAG !u! tag:unity3d.com,2011:
--- !u!1001 &1870106949411928413
PrefabInstance:
  m_ObjectHideFlags: 0
  serializedVersion: 2
  m_Modification:
    m_TransformParent: {fileID: 0}
    m_Modifications:
    - target: {fileID: 2382960026127390175, guid: 34c0e7ec0c1e0584eace6b6c8f63b801, type: 3}
      propertyPath: m_RootOrder
      value: 0
      objectReference: {fileID: 0}
    - target: {fileID: 2382960026127390175, guid: 34c0e7ec0c1e0584eace6b6c8f63b801, type: 3}
      propertyPath: m_LocalScale.x
      value: 0.63368136
      objectReference: {fileID: 0}
    - target: {fileID: 2382960026127390175, guid: 34c0e7ec0c1e0584eace6b6c8f63b801, type: 3}
      propertyPath: m_LocalScale.y
      value: 1.860975
      objectReference: {fileID: 0}
    - target: {fileID: 2382960026127390175, guid: 34c0e7ec0c1e0584eace6b6c8f63b801, type: 3}
      propertyPath: m_LocalScale.z
      value: 0.6648115
      objectReference: {fileID: 0}
    - target: {fileID: 2382960026127390175, guid: 34c0e7ec0c1e0584eace6b6c8f63b801, type: 3}
      propertyPath: m_LocalPosition.x
      value: -36.77
      objectReference: {fileID: 0}
    - target: {fileID: 2382960026127390175, guid: 34c0e7ec0c1e0584eace6b6c8f63b801, type: 3}
      propertyPath: m_LocalPosition.y
      value: -3.63
      objectReference: {fileID: 0}
    - target: {fileID: 2382960026127390175, guid: 34c0e7ec0c1e0584eace6b6c8f63b801, type: 3}
      propertyPath: m_LocalPosition.z
      value: 4.4
      objectReference: {fileID: 0}
    - target: {fileID: 2382960026127390175, guid: 34c0e7ec0c1e0584eace6b6c8f63b801, type: 3}
      propertyPath: m_LocalRotation.w
      value: -0.6503849
      objectReference: {fileID: 0}
    - target: {fileID: 2382960026127390175, guid: 34c0e7ec0c1e0584eace6b6c8f63b801, type: 3}
      propertyPath: m_LocalRotation.x
      value: -0
      objectReference: {fileID: 0}
    - target: {fileID: 2382960026127390175, guid: 34c0e7ec0c1e0584eace6b6c8f63b801, type: 3}
      propertyPath: m_LocalRotation.y
      value: -0.7596049
      objectReference: {fileID: 0}
    - target: {fileID: 2382960026127390175, guid: 34c0e7ec0c1e0584eace6b6c8f63b801, type: 3}
      propertyPath: m_LocalRotation.z
      value: -0
      objectReference: {fileID: 0}
    - target: {fileID: 2382960026127390175, guid: 34c0e7ec0c1e0584eace6b6c8f63b801, type: 3}
      propertyPath: m_LocalEulerAnglesHint.x
      value: 0
      objectReference: {fileID: 0}
    - target: {fileID: 2382960026127390175, guid: 34c0e7ec0c1e0584eace6b6c8f63b801, type: 3}
      propertyPath: m_LocalEulerAnglesHint.y
      value: -3.291
      objectReference: {fileID: 0}
    - target: {fileID: 2382960026127390175, guid: 34c0e7ec0c1e0584eace6b6c8f63b801, type: 3}
      propertyPath: m_LocalEulerAnglesHint.z
      value: 0
      objectReference: {fileID: 0}
    - target: {fileID: 4757647461473455017, guid: 34c0e7ec0c1e0584eace6b6c8f63b801, type: 3}
      propertyPath: m_Mesh
      value: 
      objectReference: {fileID: 0}
    - target: {fileID: 5705283553226087020, guid: 34c0e7ec0c1e0584eace6b6c8f63b801, type: 3}
      propertyPath: m_Name
      value: smooth ice hole thin 1
      objectReference: {fileID: 0}
    - target: {fileID: 7775716134726445048, guid: 34c0e7ec0c1e0584eace6b6c8f63b801, type: 3}
      propertyPath: m_Materials.Array.data[0]
      value: 
      objectReference: {fileID: 2100000, guid: c420ca476e8751644aad8b94a288377d, type: 2}
    - target: {fileID: 7946377139938253032, guid: 34c0e7ec0c1e0584eace6b6c8f63b801, type: 3}
      propertyPath: m_Mesh
      value: 
      objectReference: {fileID: 0}
    - target: {fileID: 8118291499656405263, guid: 34c0e7ec0c1e0584eace6b6c8f63b801, type: 3}
      propertyPath: m_Mesh
      value: 
      objectReference: {fileID: 0}
    m_RemovedComponents: []
  m_SourcePrefab: {fileID: 100100000, guid: 34c0e7ec0c1e0584eace6b6c8f63b801, type: 3}
