%YAML 1.1
%TAG !u! tag:unity3d.com,2011:
--- !u!1045 &1
EditorBuildSettings:
  m_ObjectHideFlags: 0
  serializedVersion: 2
  m_Scenes:
  - enabled: 0
    path: Assets/Scenes/SampleScene.unity
    guid: d1c3109bdb54ad54c8a2b2838528e640
  - enabled: 1
    path: Assets/Scenes/GameMenu.unity
    guid: 0467cd2e8f131bd488fe9a5c15376283
  - enabled: 1
    path: Assets/Scenes/MainScene.unity
    guid: e3bfba6703421274c90051bc3916b2fa
  - enabled: 0
    path: Assets/Scenes/SamiScene.unity
    guid: afefe25d8f6024aed83f54b64cac455f
  - enabled: 0
    path: 
    guid: 00000000000000000000000000000000
  m_configObjects: {}
